RW;SW1;2;3;4;5;6;7;8;9;10;11
0;0;4;0;0;3;0;0;6;0;0;0
1;0;4;0;0;5;0;0;8;2;2;0
2;0;5;0;3;8;0;0;10;4;4;0
3;0;5;0;6;10;0;0;11;6;6;0
4;0;5;1;7;13;0;2;12;8;8;0
5;1;6;1;9;14;0;4;12;10;9;0
6;1;7;1;10;16;0;5;13;12;11;0
7;1;8;2;12;18;0;6;13;14;13;0
8;2;9;2;13;20;0;7;14;17;14;0
9;3;9;3;14;22;0;8;14;19;16;0
10;4;11;4;16;23;0;9;14;21;17;0
11;5;12;4;17;25;0;10;14;23;19;0
12;6;13;5;18;27;0;11;15;25;20;0
13;7;14;5;18;29;0;12;15;28;22;0
14;8;15;6;19;30;0;13;15;30;23;1
15;8;16;7;20;30;0;14;15;30;25;1
16;9;17;7;21;30;0;15;16;30;26;2
17;10;18;8;21;30;0;16;16;30;28;2
18;10;19;8;22;30;0;17;16;30;30;3
19;11;21;9;23;30;0;18;16;NULL;30;4
20;11;22;10;24;30;0;19;17;NULL;30;4
21;12;24;10;24;30;0;20;17;NULL;NULL;5
22;13;25;11;25;30;1;21;17;NULL;NULL;5
23;13;27;12;25;30;1;22;18;NULL;NULL;6
24;14;29;12;26;30;1;23;18;NULL;NULL;6
25;15;30;13;28;30;1;24;18;NULL;NULL;7
26;15;30;14;29;30;2;25;19;NULL;NULL;7
27;16;30;15;30;30;2;27;19;NULL;NULL;8
28;17;30;15;30;30;2;28;20;NULL;NULL;8
29;17;30;16;30;30;3;29;21;NULL;NULL;9
30;18;30;17;30;30;4;30;21;NULL;NULL;9
31;19;30;18;30;30;4;NULL;22;NULL;NULL;10
32;19;30;19;30;30;4;NULL;22;NULL;NULL;10
33;20;30;20;30;30;5;NULL;23;NULL;NULL;11
34;21;30;22;30;30;5;NULL;24;NULL;NULL;12
35;22;30;24;30;30;6;NULL;25;NULL;NULL;12
36;22;30;25;30;30;6;NULL;26;NULL;NULL;13
37;23;30;26;30;30;7;NULL;27;NULL;NULL;13
38;24;30;28;30;30;7;NULL;28;NULL;NULL;14
39;26;30;30;30;30;8;NULL;29;NULL;NULL;14
40;28;30;30;30;30;8;NULL;30;NULL;NULL;15
41;28;30;30;30;30;9;NULL;NULL;NULL;NULL;15
42;28;30;30;30;30;9;NULL;NULL;NULL;NULL;16
43;28;30;30;30;30;9;NULL;NULL;NULL;NULL;16
44;28;30;30;30;30;10;NULL;NULL;NULL;NULL;17
45;28;30;30;30;30;10;NULL;NULL;NULL;NULL;17
46;28;30;30;30;30;11;NULL;NULL;NULL;NULL;18
47;28;30;30;30;30;11;NULL;NULL;NULL;NULL;18
48;28;30;30;30;30;11;NULL;NULL;NULL;NULL;19
49;28;30;30;30;30;12;NULL;NULL;NULL;NULL;20
50;28;30;30;30;30;12;NULL;NULL;NULL;NULL;20
51;28;30;30;30;30;12;NULL;NULL;NULL;NULL;21
52;28;30;30;30;30;13;NULL;NULL;NULL;NULL;21
53;28;30;30;30;30;13;NULL;NULL;NULL;NULL;22
54;28;30;30;30;30;14;NULL;NULL;NULL;NULL;22
55;28;30;30;30;30;14;NULL;NULL;NULL;NULL;23
56;28;30;30;30;30;15;NULL;NULL;NULL;NULL;23
57;28;30;30;30;30;15;NULL;NULL;NULL;NULL;24
58;28;30;30;30;30;16;NULL;NULL;NULL;NULL;24
59;28;30;30;30;30;16;NULL;NULL;NULL;NULL;25
60;28;30;30;30;30;17;NULL;NULL;NULL;NULL;25
61;28;30;30;30;30;17;NULL;NULL;NULL;NULL;NULL
62;28;30;30;30;30;17;NULL;NULL;NULL;NULL;NULL
63;28;30;30;30;30;18;NULL;NULL;NULL;NULL;NULL
64;28;30;30;30;30;18;NULL;NULL;NULL;NULL;NULL
65;28;30;30;30;30;18;NULL;NULL;NULL;NULL;NULL
66;28;30;30;30;30;19;NULL;NULL;NULL;NULL;NULL
67;28;30;30;30;30;19;NULL;NULL;NULL;NULL;NULL
68;28;30;30;30;30;19;NULL;NULL;NULL;NULL;NULL
69;28;30;30;30;30;19;NULL;NULL;NULL;NULL;NULL
70;28;30;30;30;30;20;NULL;NULL;NULL;NULL;NULL
71;28;30;30;30;30;20;NULL;NULL;NULL;NULL;NULL
72;28;30;30;30;30;20;NULL;NULL;NULL;NULL;NULL
73;28;30;30;30;30;20;NULL;NULL;NULL;NULL;NULL
74;28;30;30;30;30;21;NULL;NULL;NULL;NULL;NULL
75;28;30;30;30;30;21;NULL;NULL;NULL;NULL;NULL
76;28;30;30;30;30;21;NULL;NULL;NULL;NULL;NULL
77;28;30;30;30;30;21;NULL;NULL;NULL;NULL;NULL
78;28;30;30;30;30;21;NULL;NULL;NULL;NULL;NULL
79;28;30;30;30;30;22;NULL;NULL;NULL;NULL;NULL
80;28;30;30;30;30;22;NULL;NULL;NULL;NULL;NULL
81;28;30;30;30;30;22;NULL;NULL;NULL;NULL;NULL
82;28;30;30;30;30;22;NULL;NULL;NULL;NULL;NULL
83;28;30;30;30;30;22;NULL;NULL;NULL;NULL;NULL
84;28;30;30;30;30;22;NULL;NULL;NULL;NULL;NULL
85;28;30;30;30;30;22;NULL;NULL;NULL;NULL;NULL
86;28;30;30;30;30;23;NULL;NULL;NULL;NULL;NULL
87;28;30;30;30;30;23;NULL;NULL;NULL;NULL;NULL
88;28;30;30;30;30;23;NULL;NULL;NULL;NULL;NULL
89;28;30;30;30;30;23;NULL;NULL;NULL;NULL;NULL
90;28;30;30;30;30;23;NULL;NULL;NULL;NULL;NULL
91;28;30;30;30;30;24;NULL;NULL;NULL;NULL;NULL
92;28;30;30;30;30;24;NULL;NULL;NULL;NULL;NULL
93;28;30;30;30;30;24;NULL;NULL;NULL;NULL;NULL
94;28;30;30;30;30;24;NULL;NULL;NULL;NULL;NULL
95;28;30;30;30;30;24;NULL;NULL;NULL;NULL;NULL
96;28;30;30;30;30;25;NULL;NULL;NULL;NULL;NULL
97;28;30;30;30;30;25;NULL;NULL;NULL;NULL;NULL
98;28;30;30;30;30;25;NULL;NULL;NULL;NULL;NULL
99;28;30;30;30;30;27;NULL;NULL;NULL;NULL;NULL
100;28;30;30;30;30;29;NULL;NULL;NULL;NULL;NULL
