Pertanyaan;Timer;Mandatory;Jawaban;Bobot
Apakah ibukota provinsi Sumatera Utara?;0;1;Medan;1
Berapakah hasil 5x5?;0;1;25;1
"Apakah arti kata ""breakfast""?";0;1;Sarapan;1
Siapakah pemenang Miss Universe 2015?;0;1;Ariadna Gutierrez;1
Apakah gedung tertinggi di dunia?;0;1;Burj Khalifa;1
