Pertanyaan;Random;Timer;Mandatory;Jawaban1;Bobot1;Jawaban2;Bobot2;Jawaban3;Bobot3;Jawaban4;Bobot4;Jawaban5;Bobot5;Jawaban6;Bobot6
"<img src=""/assets/image/gabungan-bagian/soal1.png"" />";1;0;1;pilihan1a.png;1;pilihan1b.png;0;pilihan1c.png;1;pilihan1d.png;0;pilihan1e.png;0;pilihan1f.png;0
"<img src=""/assets/image/gabungan-bagian/soal2.png"" />";1;0;1;pilihan2a.png;1;pilihan2b.png;0;pilihan2c.png;0;pilihan2d.png;1;pilihan2e.png;0;pilihan2f.png;0
"<img src=""/assets/image/gabungan-bagian/soal3.png"" />";1;0;1;pilihan3a.png;0;pilihan3b.png;0;pilihan3c.png;0;pilihan3d.png;1;pilihan3e.png;0;pilihan3f.png;1
"<img src=""/assets/image/gabungan-bagian/soal4.png"" />";1;0;1;pilihan4a.png;0;pilihan4b.png;1;pilihan4c.png;0;pilihan4d.png;0;pilihan4e.png;1;pilihan4f.png;0
"<img src=""/assets/image/gabungan-bagian/soal5.png"" />";1;0;1;pilihan5a.png;0;pilihan5b.png;1;pilihan5c.png;0;pilihan5d.png;0;pilihan5e.png;0;pilihan5f.png;1
"<img src=""/assets/image/gabungan-bagian/soal6.png"" />";1;0;1;pilihan6a.png;0;pilihan6b.png;1;pilihan6c.png;0;pilihan6d.png;0;pilihan6e.png;1;pilihan6f.png;0
"<img src=""/assets/image/gabungan-bagian/soal7.png"" />";1;0;1;pilihan7a.png;0;pilihan7b.png;1;pilihan7c.png;0;pilihan7d.png;0;pilihan7e.png;1;pilihan7f.png;0
"<img src=""/assets/image/gabungan-bagian/soal8.png"" />";1;0;1;pilihan8a.png;1;pilihan8b.png;0;pilihan8c.png;1;pilihan8d.png;0;pilihan8e.png;0;pilihan8f.png;0
"<img src=""/assets/image/gabungan-bagian/soal9.png"" />";1;0;1;pilihan9a.png;0;pilihan9b.png;1;pilihan9c.png;0;pilihan9d.png;1;pilihan9e.png;0;pilihan9f.png;0
"<img src=""/assets/image/gabungan-bagian/soal10.png"" />";1;0;1;pilihan10a.png;0;pilihan10b.png;1;pilihan10c.png;0;pilihan10d.png;1;pilihan10e.png;0;pilihan10f.png;0
"<img src=""/assets/image/gabungan-bagian/soal11.png"" />";1;0;1;pilihan11a.png;1;pilihan11b.png;0;pilihan11c.png;0;pilihan11d.png;0;pilihan11e.png;1;pilihan11f.png;0
"<img src=""/assets/image/gabungan-bagian/soal2.png"" />";1;0;1;pilihan12a.png;0;pilihan12b.png;0;pilihan12c.png;0;pilihan12d.png;1;pilihan12e.png;0;pilihan12f.png;1
"<img src=""/assets/image/gabungan-bagian/soal13.png"" />";1;0;1;pilihan13a.png;0;pilihan13b.png;1;pilihan13c.png;0;pilihan13d.png;1;pilihan13e.png;0;pilihan13f.png;0
"<img src=""/assets/image/gabungan-bagian/soal14.png"" />";1;0;1;pilihan14a.png;0;pilihan14b.png;0;pilihan14c.png;1;pilihan14d.png;0;pilihan14e.png;0;pilihan14f.png;1
"<img src=""/assets/image/gabungan-bagian/soal15.png"" />";1;0;1;pilihan15a.png;0;pilihan15b.png;0;pilihan15c.png;1;pilihan15d.png;0;pilihan15e.png;0;pilihan15f.png;1
"<img src=""/assets/image/gabungan-bagian/soal16.png"" />";1;0;1;pilihan16a.png;0;pilihan16b.png;0;pilihan16c.png;1;pilihan16d.png;0;pilihan16e.png;1;pilihan16f.png;0
"<img src=""/assets/image/gabungan-bagian/soal17.png"" />";1;0;1;pilihan17a.png;0;pilihan17b.png;1;pilihan17c.png;0;pilihan17d.png;0;pilihan17e.png;0;pilihan17f.png;1
"<img src=""/assets/image/gabungan-bagian/soal18.png"" />";1;0;1;pilihan18a.png;0;pilihan18b.png;0;pilihan18c.png;1;pilihan18d.png;0;pilihan18e.png;1;pilihan18f.png;0
"<img src=""/assets/image/gabungan-bagian/soal19.png"" />";1;0;1;pilihan19a.png;0;pilihan19b.png;0;pilihan19c.png;1;pilihan19d.png;0;pilihan19e.png;0;pilihan19f.png;1
"<img src=""/assets/image/gabungan-bagian/soal20.png"" />";1;0;1;pilihan20a.png;0;pilihan20b.png;1;pilihan20c.png;0;pilihan20d.png;0;pilihan20e.png;0;pilihan20f.png;1
"<img src=""/assets/image/gabungan-bagian/soal21.png"" />";1;0;1;pilihan21a.png;0;pilihan21b.png;1;pilihan21c.png;0;pilihan21d.png;1;pilihan21e.png;0;pilihan21f.png;0
"<img src=""/assets/image/gabungan-bagian/soal22.png"" />";1;0;1;pilihan22a.png;0;pilihan22b.png;0;pilihan22c.png;1;pilihan22d.png;0;pilihan22e.png;1;pilihan22f.png;0
"<img src=""/assets/image/gabungan-bagian/soal23.png"" />";1;0;1;pilihan23a.png;1;pilihan23b.png;0;pilihan23c.png;0;pilihan23d.png;0;pilihan23e.png;1;pilihan23f.png;0
"<img src=""/assets/image/gabungan-bagian/soal24.png"" />";1;0;1;pilihan24a.png;0;pilihan24b.png;0;pilihan24c.png;1;pilihan24d.png;1;pilihan24e.png;0;pilihan24f.png;0
"<img src=""/assets/image/gabungan-bagian/soal25.png"" />";1;0;1;pilihan25a.png;1;pilihan25b.png;0;pilihan25c.png;0;pilihan25d.png;0;pilihan25e.png;0;pilihan25f.png;1
"<img src=""/assets/image/gabungan-bagian/soal26.png"" />";1;0;1;pilihan26a.png;0;pilihan26b.png;0;pilihan26c.png;1;pilihan26d.png;0;pilihan26e.png;0;pilihan26f.png;1
