Kategori Survey;Judul Survey;Tanggal Awal;Tanggal Akhir;Pertanyaan;Random;Timer;Mandatory;Jawaban1;Bobot1;Jawaban2;Bobot2;Jawaban3;Bobot3;Jawaban4;Bobot4;Jawaban5;Bobot5
Apt-Test;Survey via csv file;12/14/2016;12/20/2016;Siapakah wakil presiden Indonesia pertama?;1;20;1;Joko Widodo;0;Soekarno;0;Moh. Hatta;1;Amien Rais;0;Anies Baswedan;0
Apt-Test;Survey via csv file;12/14/2016;12/20/2016;Berapakah hasil 5x5?;1;20;1;20;0;25;1;92;0;10;0;15;0
Apt-Test;Survey via csv file;12/14/2016;12/20/2016;"Apakah arti kata ""breakfast""?";1;20;1;Sarapan;1;Hancur;0;Rusak;0;Makan Siang;0;Berlari;0
Apt-Test;Survey via csv file;12/14/2016;12/20/2016;Apakah ibukota Sumatera Utara?;1;20;1;Siantar;0;Palu;0;Medan;1;Padang;0;Solo;0
Apt-Test;Survey via csv file;12/14/2016;12/20/2016;Kapan hari guru diperingati?;1;20;1;26-Agu;0;25-Nov;1;17-Feb;0;10-Nov;0;17-Agu;0
